<?xml version="1.0" encoding="UTF-8"?>
<svg width="38px" height="45px" viewBox="0 0 38 45" version="1.1" xmlns="http://www.w3.org/2000/svg" xmlns:xlink="http://www.w3.org/1999/xlink">
    <!-- Generator: Sketch 51.3 (57544) - http://www.bohemiancoding.com/sketch -->
    <title>Vector Smart Object1</title>
    <desc>Created with Sketch.</desc>
    <defs></defs>
    <g id="Vector-Smart-Object1" stroke="none" stroke-width="1" fill="none" fill-rule="evenodd">
        <polygon id="Fill-1" fill="currentColor" points="31.9113 0 19.1523 35.823 6.3923 0 0.0003 0 15.9473 44.773 15.9643 44.773 22.3393 44.773 22.3573 44.773 38.3043 0"></polygon>
    </g>
</svg>