<?xml version="1.0" encoding="UTF-8"?>
<svg width="842px" height="791px" viewBox="0 0 842 791" version="1.1" xmlns="http://www.w3.org/2000/svg" xmlns:xlink="http://www.w3.org/1999/xlink">
    <!-- Generator: Sketch 51.3 (57544) - http://www.bohemiancoding.com/sketch -->
    <title>events</title>
    <desc>Created with Sketch.</desc>
    <defs></defs>
    <g id="events" stroke="none" stroke-width="1" fill="none" fill-rule="evenodd">
        <polygon id="Fill-1" fill="#4E474F" points="99.868 154.957 353.592 154.957 353.592 81.563 99.868 81.563"></polygon>
        <polygon id="Fill-2" fill="#4E474F" points="263.3257 268.5674 190.1267 268.5674 189.9317 268.5674 6.8657 782.5594 80.2497 782.5594 226.7257 371.3224 373.2017 782.5594 446.5957 782.5594 263.5207 268.5674"></polygon>
        <polygon id="Fill-3" fill="#4E474F" points="835.0244 337.8958 835.0244 264.5018 564.4644 264.5018 520.2984 264.5018 491.0704 264.5018 491.0704 778.4938 520.2984 778.4938 564.4644 778.4938 835.0244 778.4938 835.0244 705.0998 564.4644 705.0998 564.4644 558.1948 790.6074 558.1948 790.6074 484.8008 564.4644 484.8008 564.4644 337.8958"></polygon>
    </g>
</svg>